<?xml version="1.0" encoding="UTF-8"?>
<svg width="38px" height="60px" viewBox="0 0 38 60" version="1.1" xmlns="http://www.w3.org/2000/svg" xmlns:xlink="http://www.w3.org/1999/xlink">
    <!-- Generator: Sketch 49.3 (51167) - http://www.bohemiancoding.com/sketch -->
    <title>chevron_esq</title>
    <desc>Created with Sketch.</desc>
    <defs></defs>
    <g id="chevron_esq" stroke="none" stroke-width="1" fill="none" fill-rule="evenodd">
        <g id="chevron-right" fill="#F6E324">
            <polygon id="Shape" points="0.185627635 7 7.18562764 7.27595761e-12 37.1856276 30 7.18562764 60 0.185627635 53 23.1856276 30"></polygon>
        </g>
    </g>
</svg>